298 713
919 973
755 868
185 329
967 995
896 958
406 493
627 981
27 707
419 803
604 679
784 786
920 967
445 526
126 803
860 961
449 706
547 645
209 948
380 635
908 978
431 584
31 968
738 970
865 888
234 687
568 718
206 556
4 477
72 257
312 523
146 371
920 974
109 643
658 787
624 762
225 344
690 989
458 787
57 567
257 469
413 547
290 813
725 798
520 901
583 996
279 978
543 956
814 999
833 925
737 997
770 260
58 942
951 853
443 787
985 820
192 509
273 804
771 466
93 834
542 988
706 501
762 124
824 116
182 274
668 703
221 503
307 726
576 852
965 764
655 352
168 650
857 445
959 694
984 480
7276 928
9228 935
7615 6388
5137 7396
1342 1559
2925 3107
5215 3211
5810 5518
6853 5627
441 1175
1662 4808
1355 7071
8373 5642
9197 2228
2868 7374
9466 3283
6508 2179
9008 5510
5551 4984
7485 917
9086 9291
2303 3328
7484 5681
7010 7425
5942 9665
3471 9026
5918 22
4475 9321
6641 664
3737 8438
2198 8134
5842 5682
1483 9293
2375 88
6136 1130
9713 5767
4626 3661
1553 281
6543 917
3148 1510
3799 3835
6067 8936
772 1453
4060 5712
1552 5232
5839 389
2493 2913
2886 7554
6101 3527
3764 4525
8813 6182
3336 9042
8833 4202
5719 951
3609 5609
1664 1449
3654 874
4926 5598
446 4284
952 1558
2150 68
2602 5848
6213 44
5590 6616
9187 7921
2975 5753
9077 7091
4751 1264
320 4527
1519 3980
8936 4279
9018 9175
4207 6500
2671 9454
862 7806
2543 6106
8309 4985
7962 2186
86 6205
52 91
8995 376
8839 9204
8937 3160
8071 9250
5428 731
9396 5053
3276 6367
5264 9689
8730 3985
189 8900
402 9709
281 4335
1820 4611
7667 9123
6353 3449
3424 5227
789 8269
5162 1663
365 4555
4640 7207
22241 43879
49059 44398
10809 2232
15379 42354
12162 39831
25749 49367
40044 30706
18104 49011
4157 24748
9691 14167
2962 4955
20961 47200
14521 48040
10955 42771
37120 35913
17482 19296
19462 15963
11496 17240
12207 5648
47294 9020
25744 28688
41432 43435
46044 43073
26969 19333
37014 1195
7532 22886
10124 34829
21176 31531
5917 29862
41449 49282
3707 9625
40808 8169
30390 5184
15799 7805
16359 37829
15529 36226
34421 4684
32300 4198
15303 48786
45724 37182
7790 49425
23063 17181
34229 16324
14519 37149
34553 40905
8112 14782
25483 42801
43799 3612
1500 5378
14423 31255
